%!PS-Adobe-2.0 EPSF-2.0
%%Title: marginadaption
%%Creator: fig2dev Version 3.2 Patchlevel 3c
%%CreationDate: Fri Apr 12 19:23:58 2002
%%For: root@terra.intra.cut5-systemhaus.de (root)
%%BoundingBox: 0 0 401 336
%%Magnification: 1.0000
%%EndComments
/$F2psDict 200 dict def
$F2psDict begin
$F2psDict /mtrx matrix put
/col-1 {0 setgray} bind def
/col0 {0.000 0.000 0.000 srgb} bind def
/col1 {0.000 0.000 1.000 srgb} bind def
/col2 {0.000 1.000 0.000 srgb} bind def
/col3 {0.000 1.000 1.000 srgb} bind def
/col4 {1.000 0.000 0.000 srgb} bind def
/col5 {1.000 0.000 1.000 srgb} bind def
/col6 {1.000 1.000 0.000 srgb} bind def
/col7 {1.000 1.000 1.000 srgb} bind def
/col8 {0.000 0.000 0.560 srgb} bind def
/col9 {0.000 0.000 0.690 srgb} bind def
/col10 {0.000 0.000 0.820 srgb} bind def
/col11 {0.530 0.810 1.000 srgb} bind def
/col12 {0.000 0.560 0.000 srgb} bind def
/col13 {0.000 0.690 0.000 srgb} bind def
/col14 {0.000 0.820 0.000 srgb} bind def
/col15 {0.000 0.560 0.560 srgb} bind def
/col16 {0.000 0.690 0.690 srgb} bind def
/col17 {0.000 0.820 0.820 srgb} bind def
/col18 {0.560 0.000 0.000 srgb} bind def
/col19 {0.690 0.000 0.000 srgb} bind def
/col20 {0.820 0.000 0.000 srgb} bind def
/col21 {0.560 0.000 0.560 srgb} bind def
/col22 {0.690 0.000 0.690 srgb} bind def
/col23 {0.820 0.000 0.820 srgb} bind def
/col24 {0.500 0.190 0.000 srgb} bind def
/col25 {0.630 0.250 0.000 srgb} bind def
/col26 {0.750 0.380 0.000 srgb} bind def
/col27 {1.000 0.500 0.500 srgb} bind def
/col28 {1.000 0.630 0.630 srgb} bind def
/col29 {1.000 0.750 0.750 srgb} bind def
/col30 {1.000 0.880 0.880 srgb} bind def
/col31 {1.000 0.840 0.000 srgb} bind def

end
save
newpath 0 336 moveto 0 0 lineto 401 0 lineto 401 336 lineto closepath clip newpath
-237.0 474.0 translate
1 -1 scale

/cp {closepath} bind def
/ef {eofill} bind def
/gr {grestore} bind def
/gs {gsave} bind def
/sa {save} bind def
/rs {restore} bind def
/l {lineto} bind def
/m {moveto} bind def
/rm {rmoveto} bind def
/n {newpath} bind def
/s {stroke} bind def
/sh {show} bind def
/slc {setlinecap} bind def
/slj {setlinejoin} bind def
/slw {setlinewidth} bind def
/srgb {setrgbcolor} bind def
/rot {rotate} bind def
/sc {scale} bind def
/sd {setdash} bind def
/ff {findfont} bind def
/sf {setfont} bind def
/scf {scalefont} bind def
/sw {stringwidth} bind def
/tr {translate} bind def
/tnt {dup dup currentrgbcolor
  4 -2 roll dup 1 exch sub 3 -1 roll mul add
  4 -2 roll dup 1 exch sub 3 -1 roll mul add
  4 -2 roll dup 1 exch sub 3 -1 roll mul add srgb}
  bind def
/shd {dup dup currentrgbcolor 4 -2 roll mul 4 -2 roll mul
  4 -2 roll mul srgb} bind def
/$F2psBegin {$F2psDict begin /$F2psEnteredState save def} def
/$F2psEnd {$F2psEnteredState restore end} def

$F2psBegin
%%Page: 1 1
10 setmiterlimit
 0.06000 0.06000 sc
%
% Fig objects follow
%
% Polyline
7.500 slw
gs  clippath
10440 6330 m 10440 6270 l 10289 6270 l 10409 6300 l 10289 6330 l cp
eoclip
n 3975 6300 m
 10425 6300 l gs col0 s gr gr

% arrowhead
n 10289 6330 m 10409 6300 l 10289 6270 l 10289 6330 l  cp gs 0.00 setgray ef gr  col0 s
% Polyline
gs  clippath
6480 2310 m 6420 2310 l 6420 2461 l 6450 2341 l 6480 2461 l cp
eoclip
n 6450 2325 m
 6450 7875 l gs col0 s gr gr

% arrowhead
n 6480 2461 m 6450 2341 l 6420 2461 l 6480 2461 l  cp gs 0.00 setgray ef gr  col0 s
% Polyline
 [15 45] 45 sd
n 3975 7875 m 10275 7875 l 10275 2475 l 3975 2475 l
 cp gs col0 s gr  [] 0 sd
% Polyline
 [60] 0 sd
n 6450 6300 m 10275 6300 l 10275 6600 l 6450 6600 l
 cp gs col0 s gr  [] 0 sd
% Polyline
 [60] 0 sd
n 5250 2475 m 6450 2475 l 6450 6300 l 5250 6300 l
 cp gs col0 s gr  [] 0 sd
/Times-Roman ff 150.00 scf sf
6525 6225 m
gs 1 -1 sc (x0, y0) col0 sh gr
/Times-Roman ff 150.00 scf sf
10275 6525 m
gs 1 -1 sc (xunit) col0 sh gr
/Times-Roman ff 150.00 scf sf
6075 2475 m
gs 1 -1 sc (yunit) col0 sh gr
/Times-Roman ff 180.00 scf sf
8100 6525 m
gs 1 -1 sc (ticklabel) col0 sh gr
/Times-Roman ff 180.00 scf sf
9375 2625 m
gs 1 -1 sc (innerbounds) col0 sh gr
/Times-Roman ff 180.00 scf sf
5475 4575 m
gs 1 -1 sc (ticklabels) col0 sh gr
/Times-Roman ff 180.00 scf sf
4875 6525 m
gs 1 -1 sc (xlength) col0 sh gr
/Times-Roman ff 180.00 scf sf
5850 7200 m
gs 1 -1 sc (ylength) col0 sh gr
$F2psEnd
rs
